^C:\USERS\NETWAVE\DOCUMENTS\VISUAL STUDIO 2012\PROJECTS\THREADPOOL\THREADPOOL\DEBUG\THREADPOOL.OBJ
C:\WINDOWS\SYSTEM32\TZRES.DLL
C:\USERS\NETWAVE\DOCUMENTS\VISUAL STUDIO 2012\PROJECTS\THREADPOOL\THREADPOOL\DEBUG\THREADPOOL.OBJ
