^C:\USERS\NETWAVE\DOCUMENTS\VISUAL STUDIO 2012\PROJECTS\THREADPOOL\THREADPOOL\THREADPOOL.CPP
C:\USERS\NETWAVE\DOCUMENTS\VISUAL STUDIO 2012\PROJECTS\THREADPOOL\THREADPOOL\RELEASE\THREADPOOL.OBJ
C:\USERS\NETWAVE\DOCUMENTS\VISUAL STUDIO 2012\PROJECTS\THREADPOOL\THREADPOOL\RELEASE\VC110.PDB
