^C:\USERS\NETWAVE\DOCUMENTS\VISUAL STUDIO 2012\PROJECTS\THREADPOOL\TPTEST\STDAFX.CPP
/c /I"C:\Users\Netwave\Documents\Visual Studio 2012\Projects\ThreadPool\ThreadPool" /Zi /nologo /W3 /WX- /O2 /Oi /GL /D WIN32 /D NDEBUG /D _CONSOLE /D _UNICODE /D UNICODE /Gm- /EHsc /MD /GS /Gy /fp:precise /Zc:wchar_t /Zc:forScope /Fo"X64\RELEASE\\" /Fd"X64\RELEASE\VC110.PDB" /Gd /TP C:\USERS\NETWAVE\DOCUMENTS\VISUAL STUDIO 2012\PROJECTS\THREADPOOL\TPTEST\STDAFX.CPP
^C:\USERS\NETWAVE\DOCUMENTS\VISUAL STUDIO 2012\PROJECTS\THREADPOOL\TPTEST\TPTEST.CPP
/c /I"C:\Users\Netwave\Documents\Visual Studio 2012\Projects\ThreadPool\ThreadPool" /Zi /nologo /W3 /WX- /O2 /Oi /GL /D WIN32 /D NDEBUG /D _CONSOLE /D _UNICODE /D UNICODE /Gm- /EHsc /MD /GS /Gy /fp:precise /Zc:wchar_t /Zc:forScope /Fo"X64\RELEASE\\" /Fd"X64\RELEASE\VC110.PDB" /Gd /TP C:\USERS\NETWAVE\DOCUMENTS\VISUAL STUDIO 2012\PROJECTS\THREADPOOL\TPTEST\TPTEST.CPP
