^C:\USERS\NETWAVE\DOCUMENTS\VISUAL STUDIO 2012\PROJECTS\THREADPOOL\TPTEST\STDAFX.CPP|C:\USERS\NETWAVE\DOCUMENTS\VISUAL STUDIO 2012\PROJECTS\THREADPOOL\TPTEST\TPTEST.CPP
C:\USERS\NETWAVE\DOCUMENTS\VISUAL STUDIO 2012\PROJECTS\THREADPOOL\TPTEST\RELEASE\TPTEST.OBJ
C:\USERS\NETWAVE\DOCUMENTS\VISUAL STUDIO 2012\PROJECTS\THREADPOOL\TPTEST\RELEASE\STDAFX.OBJ
^C:\USERS\NETWAVE\DOCUMENTS\VISUAL STUDIO 2012\PROJECTS\THREADPOOL\TPTEST\STDAFX.CPP
C:\USERS\NETWAVE\DOCUMENTS\VISUAL STUDIO 2012\PROJECTS\THREADPOOL\TPTEST\RELEASE\VC110.PDB
^C:\USERS\NETWAVE\DOCUMENTS\VISUAL STUDIO 2012\PROJECTS\THREADPOOL\TPTEST\TPTEST.CPP
C:\USERS\NETWAVE\DOCUMENTS\VISUAL STUDIO 2012\PROJECTS\THREADPOOL\TPTEST\RELEASE\TPTEST.OBJ
C:\USERS\NETWAVE\DOCUMENTS\VISUAL STUDIO 2012\PROJECTS\THREADPOOL\TPTEST\RELEASE\VC110.PDB
