^C:\USERS\NETWAVE\DOCUMENTS\VISUAL STUDIO 2012\PROJECTS\THREADPOOL\DEBUG\THREADPOOL.LIB|C:\USERS\NETWAVE\DOCUMENTS\VISUAL STUDIO 2012\PROJECTS\THREADPOOL\TPTEST\DEBUG\STDAFX.OBJ|C:\USERS\NETWAVE\DOCUMENTS\VISUAL STUDIO 2012\PROJECTS\THREADPOOL\TPTEST\DEBUG\TPTEST.OBJ
C:\USERS\NETWAVE\DOCUMENTS\VISUAL STUDIO 2012\PROJECTS\THREADPOOL\DEBUG\TPTEST.ILK
C:\USERS\NETWAVE\DOCUMENTS\VISUAL STUDIO 2012\PROJECTS\THREADPOOL\DEBUG\TPTEST.EXE
C:\USERS\NETWAVE\DOCUMENTS\VISUAL STUDIO 2012\PROJECTS\THREADPOOL\DEBUG\TPTEST.PDB
