^C:\USERS\NETWAVE\DOCUMENTS\VISUAL STUDIO 2013\PROJECTS\THREADPOOL\THREADPOOL\RELEASE\THREADPOOL.OBJ
C:\WINDOWS\SYSTEM32\TZRES.DLL
C:\USERS\NETWAVE\DOCUMENTS\VISUAL STUDIO 2013\PROJECTS\THREADPOOL\THREADPOOL\RELEASE\THREADPOOL.OBJ
