^C:\USERS\NETWAVE\DOCUMENTS\VISUAL STUDIO 2013\PROJECTS\THREADPOOL\THREADPOOL\THREADPOOL.CPP
C:\USERS\NETWAVE\DOCUMENTS\VISUAL STUDIO 2013\PROJECTS\THREADPOOL\THREADPOOL\X64\DEBUG\VC120.PDB
C:\USERS\NETWAVE\DOCUMENTS\VISUAL STUDIO 2013\PROJECTS\THREADPOOL\THREADPOOL\X64\DEBUG\VC120.IDB
C:\USERS\NETWAVE\DOCUMENTS\VISUAL STUDIO 2013\PROJECTS\THREADPOOL\THREADPOOL\X64\DEBUG\THREADPOOL.OBJ
