^C:\USERS\NETWAVE\DOCUMENTS\VISUAL STUDIO 2013\PROJECTS\THREADPOOL\RELEASE\THREADPOOL.LIB|C:\USERS\NETWAVE\DOCUMENTS\VISUAL STUDIO 2013\PROJECTS\THREADPOOL\TPTEST\RELEASE\STDAFX.OBJ|C:\USERS\NETWAVE\DOCUMENTS\VISUAL STUDIO 2013\PROJECTS\THREADPOOL\TPTEST\RELEASE\TPTEST.OBJ
C:\USERS\NETWAVE\DOCUMENTS\VISUAL STUDIO 2013\PROJECTS\THREADPOOL\RELEASE\TPTEST.EXE
C:\USERS\NETWAVE\DOCUMENTS\VISUAL STUDIO 2013\PROJECTS\THREADPOOL\RELEASE\TPTEST.PDB
